// 20200225181224
// https://api.themoviedb.org/3/discover/movie?api_key=<tmdb key>&with_genres=12&region=FR

{
    "page": 1,
    "total_results": 2238,
    "total_pages": 112,
    "results": [
        {
            "popularity": 160.136,
            "vote_count": 2427,
            "video": false,
            "poster_path": "/xBHvZcjRiWyobQ9kxBhO6B2dtRI.jpg",
            "id": 419704,
            "adult": false,
            "backdrop_path": "/5BwqwxMEjeFtdknRV792Svo0K1v.jpg",
            "original_language": "en",
            "original_title": "Ad Astra",
            "genre_ids": [12, 18, 9648, 878, 53],
            "title": "Ad Astra",
            "vote_average": 6,
            "overview": "The near future, a time when both hope and hardships drive humanity to look to the stars and beyond. While a mysterious phenomenon menaces to destroy life on planet Earth, astronaut Roy McBride undertakes a mission across the immensity of space and its many perils to uncover the truth about a lost expedition that decades before boldly faced emptiness and silence in search of the unknown.",
            "release_date": "2019-09-18"
        },
        {
            "popularity": 125.845,
            "vote_count": 2440,
            "video": false,
            "poster_path": "/h6Wi81XNXCjTAcdstiCLRykN3Pa.jpg",
            "id": 330457,
            "adult": false,
            "backdrop_path": "/xJWPZIYOEFIjZpBL7SVBGnzRYXp.jpg",
            "original_language": "en",
            "original_title": "Frozen II",
            "genre_ids": [12, 16, 10751],
            "title": "Frozen II",
            "vote_average": 7,
            "overview": "Elsa, Anna, Kristoff and Olaf head far into the forest to learn the truth about an ancient mystery of their kingdom.",
            "release_date": "2019-11-20"
        },
        {
            "popularity": 131.835,
            "vote_count": 52,
            "video": false,
            "poster_path": "/33VdppGbeNxICrFUtW2WpGHvfYc.jpg",
            "id": 481848,
            "adult": false,
            "backdrop_path": "/yFRpUmsreYO5Bc0HVBTsJsHIIox.jpg",
            "original_language": "en",
            "original_title": "The Call of the Wild",
            "genre_ids": [12, 18, 10751],
            "title": "The Call of the Wild",
            "vote_average": 6.3,
            "overview": "A sled dog struggles for survival in the wilds of the Yukon.",
            "release_date": "2020-02-19"
        },
        {
            "popularity": 104.181,
            "vote_count": 1628,
            "video": false,
            "poster_path": "/jyw8VKYEiM1UDzPB7NsisUgBeJ8.jpg",
            "id": 512200,
            "adult": false,
            "backdrop_path": "/zTxHf9iIOCqRbxvl8W5QYKrsMLq.jpg",
            "original_language": "en",
            "original_title": "Jumanji: The Next Level",
            "genre_ids": [28, 12, 35, 14],
            "title": "Jumanji: The Next Level",
            "vote_average": 6.7,
            "overview": "As the gang return to Jumanji to rescue one of their own, they discover that nothing is as they expect. The players will have to brave parts unknown and unexplored in order to escape the world’s most dangerous game.",
            "release_date": "2019-12-04"
        },
        {
            "popularity": 84.014,
            "vote_count": 8732,
            "video": false,
            "poster_path": "/jpfkzbIXgKZqCZAkEkFH2VYF63s.jpg",
            "id": 920,
            "adult": false,
            "backdrop_path": "/a1MlbLBk5Sy6YvMbSuKfwGlDVlb.jpg",
            "original_language": "en",
            "original_title": "Cars",
            "genre_ids": [12, 16, 35, 10751],
            "title": "Cars",
            "vote_average": 6.7,
            "overview": "Lightning McQueen, a hotshot rookie race car driven to succeed, discovers that life is about the journey, not the finish line, when he finds himself unexpectedly detoured in the sleepy Route 66 town of Radiator Springs. On route across the country to the big Piston Cup Championship in California to compete against two seasoned pros, McQueen gets to know the town's offbeat characters.",
            "release_date": "2006-06-14"
        },
        {
            "popularity": 90.18,
            "vote_count": 456,
            "video": false,
            "poster_path": "/5eNiYMu2GXCtNlDwMcJqKGVwyoX.jpg",
            "id": 448119,
            "adult": false,
            "backdrop_path": "/lG802rseTZcN9mtLsQPVfApEVzM.jpg",
            "original_language": "en",
            "original_title": "Dolittle",
            "genre_ids": [12, 35, 14, 10751],
            "title": "Dolittle",
            "vote_average": 6.4,
            "overview": "After losing his wife seven years earlier, the eccentric Dr. John Dolittle, famed doctor and veterinarian of Queen Victoria’s England, hermits himself away behind the high walls of Dolittle Manor with only his menagerie of exotic animals for company. But when the young queen falls gravely ill, a reluctant Dolittle is forced to set sail on an epic adventure to a mythical island in search of a cure, regaining his wit and courage as he crosses old adversaries and discovers wondrous creatures.",
            "release_date": "2020-02-05"
        },
        {
            "popularity": 64.167,
            "vote_count": 3014,
            "video": false,
            "poster_path": "/db32LaOibwEliAmSL2jjDF6oDdj.jpg",
            "id": 181812,
            "adult": false,
            "backdrop_path": "/jOzrELAzFxtMx2I4uDGHOotdfsS.jpg",
            "original_language": "en",
            "original_title": "Star Wars: The Rise of Skywalker",
            "genre_ids": [28, 12, 878],
            "title": "Star Wars: The Rise of Skywalker",
            "vote_average": 6.5,
            "overview": "The surviving Resistance faces the First Order once again as the journey of Rey, Finn and Poe Dameron continues. With the power and knowledge of generations behind them, the final battle begins.",
            "release_date": "2019-12-18"
        },
        {
            "popularity": 50.908,
            "vote_count": 4877,
            "video": false,
            "poster_path": "/3iYQTLGoy7QnjcUYRJy4YrAgGvp.jpg",
            "id": 420817,
            "adult": false,
            "backdrop_path": "/rVqY0Bo4Npf6EIONUROxjYAJfmD.jpg",
            "original_language": "en",
            "original_title": "Aladdin",
            "genre_ids": [12, 35, 14, 10749, 10751],
            "title": "Aladdin",
            "vote_average": 7,
            "overview": "A kindhearted street urchin named Aladdin embarks on a magical adventure after finding a lamp that releases a wisecracking genie while a power-hungry Grand Vizier vies for the same lamp that has the power to make their deepest wishes come true.",
            "release_date": "2019-05-22"
        },
        {
            "popularity": 61.863,
            "vote_count": 16824,
            "video": false,
            "poster_path": "/7WsyChQLEftFiDOVTGkv3hFpyyt.jpg",
            "id": 299536,
            "adult": false,
            "backdrop_path": "/bOGkgRGdhrBYJSLpXaxhXVstddV.jpg",
            "original_language": "en",
            "original_title": "Avengers: Infinity War",
            "genre_ids": [28, 12, 878],
            "title": "Avengers: Infinity War",
            "vote_average": 8.3,
            "overview": "As the Avengers and their allies have continued to protect the world from threats too large for any one hero to handle, a new danger has emerged from the cosmic shadows: Thanos. A despot of intergalactic infamy, his goal is to collect all six Infinity Stones, artifacts of unimaginable power, and use them to inflict his twisted will on all of reality. Everything the Avengers have fought for has led up to this moment - the fate of Earth and existence itself has never been more uncertain.",
            "release_date": "2018-04-25"
        },
        {
            "popularity": 68.365,
            "vote_count": 457,
            "video": false,
            "poster_path": "/1DPUFG6QnGqzpvEaDEv7TaepycM.jpg",
            "id": 458897,
            "adult": false,
            "backdrop_path": "/a0xTB1vBxMGt6LGG4N7k1wO9lfL.jpg",
            "original_language": "en",
            "original_title": "Charlie's Angels",
            "genre_ids": [28, 12, 35],
            "title": "Charlie's Angels",
            "vote_average": 6.4,
            "overview": "When a systems engineer blows the whistle on a dangerous technology, Charlie's Angels from across the globe are called into action, putting their lives on the line to protect society.",
            "release_date": "2019-12-25"
        },
        {
            "popularity": 55.755,
            "vote_count": 1882,
            "video": false,
            "poster_path": "/vloNTScJ3w7jwNwtNGoG8DbTThv.jpg",
            "id": 420809,
            "adult": false,
            "backdrop_path": "/skvI4rYFrKXS73BJxWGH54Omlvv.jpg",
            "original_language": "en",
            "original_title": "Maleficent: Mistress of Evil",
            "genre_ids": [12, 14, 10751],
            "title": "Maleficent: Mistress of Evil",
            "vote_average": 7.2,
            "overview": "Maleficent and her goddaughter Aurora begin to question the complex family ties that bind them as they are pulled in different directions by impending nuptials, unexpected allies, and dark new forces at play.",
            "release_date": "2019-10-16"
        },
        {
            "popularity": 54.775,
            "vote_count": 6074,
            "video": false,
            "poster_path": "/zfJCXR1k8stsIZXfbjIJTpTrOTH.jpg",
            "id": 429617,
            "adult": false,
            "backdrop_path": "/5myQbDzw3l8K9yofUXRJ4UTVgam.jpg",
            "original_language": "en",
            "original_title": "Spider-Man: Far from Home",
            "genre_ids": [28, 12, 878],
            "title": "Spider-Man: Far from Home",
            "vote_average": 7.5,
            "overview": "Peter Parker and his friends go on a summer trip to Europe. However, they will hardly be able to rest - Peter will have to agree to help Nick Fury uncover the mystery of creatures that cause natural disasters and destruction throughout the continent.",
            "release_date": "2019-07-03"
        },
        {
            "popularity": 41.09,
            "vote_count": 24593,
            "video": false,
            "poster_path": "/qmDpIHrmpJINaRKAfWQfftjCdyi.jpg",
            "id": 27205,
            "adult": false,
            "backdrop_path": "/s2bT29y0ngXxxu2IA8AOzzXTRhd.jpg",
            "original_language": "en",
            "original_title": "Inception",
            "genre_ids": [28, 12, 878],
            "title": "Inception",
            "vote_average": 8.3,
            "overview": "Cobb, a skilled thief who commits corporate espionage by infiltrating the subconscious of his targets is offered a chance to regain his old life as payment for a task considered to be impossible: \"inception\", the implantation of another person's idea into a target's subconscious.",
            "release_date": "2010-07-21"
        },
        {
            "popularity": 40.897,
            "id": 420818,
            "video": false,
            "vote_count": 4526,
            "vote_average": 7.1,
            "title": "The Lion King",
            "release_date": "2019-07-17",
            "original_language": "en",
            "original_title": "The Lion King",
            "genre_ids": [12, 10751],
            "backdrop_path": "/nRXO2SnOA75OsWhNhXstHB8ZmI3.jpg",
            "adult": false,
            "overview": "Simba idolizes his father, King Mufasa, and takes to heart his own royal destiny. But not everyone in the kingdom celebrates the new cub's arrival. Scar, Mufasa's brother—and former heir to the throne—has plans of his own. The battle for Pride Rock is ravaged with betrayal, tragedy and drama, ultimately resulting in Simba's exile. With help from a curious pair of newfound friends, Simba will have to figure out how to grow up and take back what is rightfully his.",
            "poster_path": "/2bXbqYdUdNVa8VIWXVfclP2ICtT.jpg"
        },
        {
            "popularity": 49.833,
            "vote_count": 19774,
            "video": false,
            "poster_path": "/y31QB9kn3XSudA15tV7UWQ9XLuW.jpg",
            "id": 118340,
            "adult": false,
            "backdrop_path": "/kHex2XdOmGtazk1VfJjp4bl7BIc.jpg",
            "original_language": "en",
            "original_title": "Guardians of the Galaxy",
            "genre_ids": [28, 12, 878],
            "title": "Guardians of the Galaxy",
            "vote_average": 7.9,
            "overview": "Light years from Earth, 26 years after being abducted, Peter Quill finds himself the prime target of a manhunt after discovering an orb wanted by Ronan the Accuser.",
            "release_date": "2014-08-13"
        },
        {
            "popularity": 42.056,
            "vote_count": 108,
            "video": false,
            "poster_path": "/fDaOX4BCGwc1im7XYjrzyEbUfX2.jpg",
            "id": 451644,
            "adult": false,
            "backdrop_path": "/83QeqJ5QPljmAxPdgLv6BMzgo3u.jpg",
            "original_language": "en",
            "original_title": "Dragonheart: Battle for the Heartfire",
            "genre_ids": [12],
            "title": "Dragonheart: Battle for the Heartfire",
            "vote_average": 6.2,
            "overview": "When the King Gareth dies, his potential heirs, twin grandchildren who possess the dragon’s unique strengths, use their inherited powers against each other to vie for the throne. When Drago’s source of power – known as the Heartfire – is stolen, more than the throne is at stake; the siblings must end their rivalry with swords and sorcery or the kingdom may fall.",
            "release_date": "2017-07-25"
        },
        {
            "popularity": 52.26,
            "id": 109445,
            "video": false,
            "vote_count": 11158,
            "vote_average": 7.3,
            "title": "Frozen",
            "release_date": "2013-12-04",
            "original_language": "en",
            "original_title": "Frozen",
            "genre_ids": [16, 12, 10751],
            "backdrop_path": "/cN9Nbwh66TRcj2gBE8cSEZulsx3.jpg",
            "adult": false,
            "overview": "Young princess Anna of Arendelle dreams about finding true love at her sister Elsa’s coronation. Fate takes her on a dangerous journey in an attempt to end the eternal winter that has fallen over the kingdom. She's accompanied by ice delivery man Kristoff, his reindeer Sven, and snowman Olaf. On an adventure where she will find out what friendship, courage, family, and true love really means.",
            "poster_path": "/eFnGmj63QPUpK7QUWSOUhypIQOT.jpg"
        },
        {
            "popularity": 50.755,
            "vote_count": 2579,
            "video": false,
            "poster_path": "/kvpNZAQow5es1tSY6XW2jAZuPPG.jpg",
            "id": 384018,
            "adult": false,
            "backdrop_path": "/qAhedRxRYWZAgZ8O8pHIl6QHdD7.jpg",
            "original_language": "en",
            "original_title": "Fast & Furious Presents: Hobbs & Shaw",
            "genre_ids": [28, 12, 35],
            "title": "Fast & Furious Presents: Hobbs & Shaw",
            "vote_average": 6.6,
            "overview": "Ever since US Diplomatic Security Service Agent Hobbs and lawless outcast Shaw first faced off, they just have swapped smacks and bad words. But when cyber-genetically enhanced anarchist Brixton's ruthless actions threaten the future of humanity, both join forces to defeat him. (A spin-off of “The Fate of the Furious,” focusing on Johnson's Luke Hobbs and Statham's Deckard Shaw.)",
            "release_date": "2019-08-07"
        },
        {
            "popularity": 41.382,
            "vote_count": 15700,
            "video": false,
            "poster_path": "/gHPtCmMeDqjaGqnMrWGDmD3nKd2.jpg",
            "id": 671,
            "adult": false,
            "backdrop_path": "/hziiv14OpD73u9gAak4XDDfBKa2.jpg",
            "original_language": "en",
            "original_title": "Harry Potter and the Philosopher's Stone",
            "genre_ids": [12, 14, 10751],
            "title": "Harry Potter and the Philosopher's Stone",
            "vote_average": 7.8,
            "overview": "Harry Potter has lived under the stairs at his aunt and uncle's house his whole life. But on his 11th birthday, he learns he's a powerful wizard -- with a place waiting for him at the Hogwarts School of Witchcraft and Wizardry. As he learns to harness his newfound powers with the help of the school's kindly headmaster, Harry uncovers the truth about his parents' deaths -- and about the villain who's to blame.",
            "release_date": "2001-12-05"
        },
        {
            "popularity": 40.859,
            "vote_count": 2895,
            "video": false,
            "poster_path": "/cCTJPelKGLhALq3r51A9uMonxKj.jpg",
            "id": 320288,
            "adult": false,
            "backdrop_path": "/cjRUhKyt2Jo3V1KNzc5tpPNfccG.jpg",
            "original_language": "en",
            "original_title": "Dark Phoenix",
            "genre_ids": [28, 12, 878],
            "title": "Dark Phoenix",
            "vote_average": 6,
            "overview": "The X-Men face their most formidable and powerful foe when one of their own, Jean Grey, starts to spiral out of control. During a rescue mission in outer space, Jean is nearly killed when she's hit by a mysterious cosmic force. Once she returns home, this force not only makes her infinitely more powerful, but far more unstable. The X-Men must now band together to save her soul and battle aliens that want to use Grey's new abilities to rule the galaxy.",
            "release_date": "2019-06-05"
        }
    ]
}
